Week 3: Data Visualization
…
---

# `geom_line()`

Classic time series example 

*economics* data from `{ggplot2}`

```r
economics
```

```
## # A tibble: 574 x 6
##    date         pce    pop psavert uempmed unemploy
##    <date>     <dbl>  <dbl>   <dbl>   <dbl>    <dbl>
##  1 1967-07-01  507. 198712    12.6     4.5     2944
##  2 1967-08-01  510. 198911    12.6     4.7     2945
##  3 1967-09-01  516. 199113    11.9     4.6     2958
##  4 1967-10-01  512. 199311    12.9     4.9     3143
##  5 1967-11-01  517. 199498    12.8     4.7     3066
##  6 1967-12-01  525. 199657    11.8     4.8     3018
##  7 1968-01-01  531. 199808    11.7     5.1     2878
##  8 1968-02-01  534. 199920    12.3     4.5     3001
##  9 1968-03-01  544. 200056    11.7     4.1     2877
## 10 1968-04-01  544  200208    12.3     4.6     2709
## # ... with 564 more rows
```
…
`{fivethirtyeight}` package
- *college_grad_students*

```r
theme_set(theme_minimal(base_size = 16))

#install.packages("fivethirtyeight")
library(fivethirtyeight)
# View(college_grad_students)
d <- college_grad_students # simpler reference
d
```

```
## # A tibble: 173 x 22
##    major~1 major major~2 grad_~3 grad_~4 grad_~5 grad_~6 grad_~7 grad_~8 grad_~9
##      <int> <chr> <chr>     <int>   <int>   <int>   <int>   <int>   <dbl>   <dbl>
##  1    5601 Cons~ Indust~    9173     200    7098    6511     681  0.0875  110000
##  2    6004 Comm~ Arts      53864     882   40492   29553    2482  0.0578   89000
##  3    6211 Hosp~ Busine~   24417     437   18368   14784    1465  0.0739  100000
##  4    2201 Cosm~ Indust~    5411      72    3590    2701     316  0.0809   85000
##  5    2001 Comm~ Comput~    9109     171    7512    5622     466  0.0584   83700
##  6    3201 Cour~ Law & ~    1542      22    1008     860       0  0       120000
##  7    6206 Mark~ Busine~  190996    3738  151570  123045    8324  0.0521  120000
##  8    1101 Agri~ Agricu~   17488     386   13104   11207     473  0.0348  100000
##  9    2101 Comp~ Comput~    5611      98    4716    3981     119  0.0246  114000
## 10    1904 Adve~ Commun~   33928     688   28517   22523     899  0.0306   90000
## # ... with 163 more rows, 12 more variables: grad_median <dbl>,
## #   grad_p75th <int>, nongrad_total <int>, nongrad_employed <int>,
## #   nongrad_employed_fulltime_yearround <int>, nongrad_unemployed <int>,
## #   nongrad_unemployment_rate <dbl>, nongrad_p25th <dbl>, nongrad_median <dbl>,
## #   nongrad_p75th <dbl>, grad_share <dbl>, grad_premium <dbl>, and abbreviated
## #   variable names 1: major_code, 2: major_category, 3: grad_total,
## #   4: grad_sample_size, 5: grad_employed, ...
```
…
```r
candy <- candy_rankings %>% 
  pivot_longer(
    cols = chocolate:pluribus,
    names_to = "type",
    values_to = "foo") %>% 
  filter(foo) %>% 
  select(-foo)
candy
```

```
## # A tibble: 197 x 5
*##    competitorname sugarpercent pricepercent winpercent type            
##    <chr>                 <dbl>        <dbl>      <dbl> <chr>           
##  1 100 Grand             0.732        0.860       67.0 chocolate       
##  2 100 Grand             0.732        0.860       67.0 caramel         
##  3 100 Grand             0.732        0.860       67.0 crispedricewafer
##  4 100 Grand             0.732        0.860       67.0 bar             
##  5 3 Musketeers          0.604        0.511       67.6 chocolate       
##  6 3 Musketeers          0.604        0.511       67.6 nougat          
##  7 3 Musketeers          0.604        0.511       67.6 bar             
##  8 Air Heads             0.906        0.511       52.3 fruity          
##  9 Almond Joy            0.465        0.767       50.3 chocolate       
## 10 Almond Joy            0.465        0.767       50.3 peanutyalmondy  
## # ... with 187 more rows
```
…
