Week 9: Factors & Pull Requests
…
* But don't forget about the base function `unique()`
  + e.g., `unique(df$factor_variable)`

---
# General Social Survey (GSS)

```r
forcats::gss_cat
```

```
## # A tibble: 21,483 x 9
##     year marital         age race  rincome        partyid    relig denom tvhours
##    <int> <fct>         <int> <fct> <fct>          <fct>      <fct> <fct>   <int>
##  1  2000 Never married    26 White $8000 to 9999  Ind,near ~ Prot~ Sout~      12
##  2  2000 Divorced         48 White $8000 to 9999  Not str r~ Prot~ Bapt~      NA
##  3  2000 Widowed          67 White Not applicable Independe~ Prot~ No d~       2
##  4  2000 Never married    39 White Not applicable Ind,near ~ Orth~ Not ~       4
##  5  2000 Divorced         25 White Not applicable Not str d~ None  Not ~       1
##  6  2000 Married          25 White $20000 - 24999 Strong de~ Prot~ Sout~      NA
##  7  2000 Never married    36 White $25000 or more Not str r~ Chri~ Not ~       3
##  8  2000 Divorced         44 White $7000 to 7999  Ind,near ~ Prot~ Luth~      NA
##  9  2000 Married          44 White $25000 or more Not str d~ Prot~ Other       0
## 10  2000 Married          47 White $25000 or more Strong re~ Prot~ Sout~       3
## # ... with 21,473 more rows
```
…
