Week 4: Data Wrangling
…
---
# Use `select` to order columns

```r
library(fivethirtyeight)
college_grad_students
```

```
## # A tibble: 173 x 22
##    major_code major  major~1 grad_~2 grad_~3 grad_~4 grad_~5 grad_~6 grad_~7 grad_~8 grad_~9 grad_~* nongr~* nongr~* nongr~* nongr~*
##         <int> <chr>  <chr>     <int>   <int>   <int>   <int>   <int>   <dbl>   <dbl>   <dbl>   <int>   <int>   <int>   <int>   <int>
##  1       5601 Const~ Indust~    9173     200    7098    6511     681  0.0875  110000   75000   53000   86062   73607   62435    3928
##  2       6004 Comme~ Arts      53864     882   40492   29553    2482  0.0578   89000   60000   40000  461977  347166  250596   25484
##  3       6211 Hospi~ Busine~   24417     437   18368   14784    1465  0.0739  100000   65000   45000  179335  145597  113579    7409
##  4       2201 Cosme~ Indust~    5411      72    3590    2701     316  0.0809   85000   47000   24500   37575   29738   23249    1661
##  5       2001 Commu~ Comput~    9109     171    7512    5622     466  0.0584   83700   57000   40600   53819   43163   34231    3389
##  6       3201 Court~ Law & ~    1542      22    1008     860       0  0       120000   75000   55000    8921    6967    6063     518
##  7       6206 Marke~ Busine~  190996    3738  151570  123045    8324  0.0521  120000   80000   50000 1029181  817906  662346   45519
##  8       1101 Agric~ Agricu~   17488     386   13104   11207     473  0.0348  100000   67000   41600   89169   71781   61335    1869
##  9       2101 Compu~ Comput~    5611      98    4716    3981     119  0.0246  114000   85000   56000   28314   22024   18381    2222
## 10       1904 Adver~ Commun~   33928     688   28517   22523     899  0.0306   90000   60000   43000  163435  127832  100330    8706
## # ... with 163 more rows, 6 more variables: nongrad_unemployment_rate <dbl>, nongrad_p25th <dbl>, nongrad_median <dbl>,
## #   nongrad_p75th <dbl>, grad_share <dbl>, grad_premium <dbl>, and abbreviated variable names 1: major_category, 2: grad_total,
## #   3: grad_sample_size, 4: grad_employed, 5: grad_employed_fulltime_yearround, 6: grad_unemployed, 7: grad_unemployment_rate,
## #   8: grad_p25th, 9: grad_median, *: grad_p75th, *: nongrad_total, *: nongrad_employed, *: nongrad_employed_fulltime_yearround,
## #   *: nongrad_unemployed
```
…
---
# Helper functions

First: this code may not work for you - why?

```r
reads <- read_csv(here("data", "Project_Reads_Scores.csv")) %>% 
  clean_names()
reads
```

```
## # A tibble: 48 x 25
##    test_year test_~1 test_~2 stude~3 pre_t~4 pre_t~5 post_~6 post_~7 perce~8 unit_~9 unit_~* unit_~* unit_~* unit_~* unit_~* unit_~*
##    <chr>     <chr>   <chr>   <chr>     <dbl> <chr>     <dbl> <chr>   <chr>     <dbl> <chr>     <dbl> <chr>     <dbl> <chr>     <dbl>
##  1 06/01/20~ YEAR E~ VIRDEN  Virden~      43 29%          92 61%     32%           3 12%           4 16%           6 24%           8
##  2 06/01/20~ YEAR E~ VIRDEN  Virden~      46 31%         104 69%     38%           5 20%           5 20%           6 24%           8
##  3 06/01/20~ YEAR E~ VIRDEN  Virden~      39 26%          75 50%     24%           4 16%           4 16%           6 24%           9
##  4 06/01/20~ YEAR E~ VIRDEN  Virden~      35 23%         115 77%     54%           4 16%           4 16%           6 24%          10
##  5 06/01/20~ YEAR E~ VIRDEN  Virden~      46 31%          85 57%     26%           2 8%            5 20%           6 24%           7
##  6 06/01/20~ YEAR E~ VIRDEN  Virden~      35 23%          91 61%     38%           5 20%           5 20%           7 28%           7
##  7 06/01/20~ YEAR E~ VIRDEN  Virden~      40 27%          96 64%     37%           5 20%           5 20%           6 24%           7
##  8 06/01/20~ YEAR E~ VIRDEN  Virden~      39 26%          74 49%     23%           4 16%           5 20%           5 20%           8
##  9 06/01/20~ YEAR E~ VIRDEN  Virden~      40 27%          90 60%     33%           6 24%           4 16%           5 20%           8
## 10 06/01/20~ YEAR E~ VIRDEN  Virden~      45 30%          86 57%     27%           4 16%           5 20%           5 20%           7
## # ... with 38 more rows, 9 more variables: unit_4_percent <chr>, unit_5_6_score <dbl>, unit_5_6_percent <chr>, unit_7_score <dbl>,
## #   unit_7_percent <chr>, unit_8_score <dbl>, unit_8_percent <chr>, total_score <dbl>, total_percent_correct <chr>, and abbreviated
## #   variable names 1: test_type, 2: test_site, 3: student_id, 4: pre_test_score, 5: pre_test_percent, 6: post_test_score,
## #   7: post_test_percent, 8: percentage_change, 9: unit_1_score, *: unit_1_percent, *: unit_2_score, *: unit_2_percent,
## #   *: unit_3_score, *: unit_3_percent, *: unit_4_score
```

---
# Use `select` to order columns

```r
college_grad_students %>%
	select(major_code, grad_total, grad_sample_size, everything())
```

```
## # A tibble: 173 x 22
##    major_code grad_t~1 grad_~2 major major~3 grad_~4 grad_~5 grad_~6 grad_~7 grad_~8 grad_~9 grad_~* nongr~* nongr~* nongr~* nongr~*
##         <int>    <int>   <int> <chr> <chr>     <int>   <int>   <int>   <dbl>   <dbl>   <dbl>   <int>   <int>   <int>   <int>   <int>
##  1       5601     9173     200 Cons~ Indust~    7098    6511     681  0.0875  110000   75000   53000   86062   73607   62435    3928
##  2       6004    53864     882 Comm~ Arts      40492   29553    2482  0.0578   89000   60000   40000  461977  347166  250596   25484
##  3       6211    24417     437 Hosp~ Busine~   18368   14784    1465  0.0739  100000   65000   45000  179335  145597  113579    7409
##  4       2201     5411      72 Cosm~ Indust~    3590    2701     316  0.0809   85000   47000   24500   37575   29738   23249    1661
##  5       2001     9109     171 Comm~ Comput~    7512    5622     466  0.0584   83700   57000   40600   53819   43163   34231    3389
##  6       3201     1542      22 Cour~ Law & ~    1008     860       0  0       120000   75000   55000    8921    6967    6063     518
##  7       6206   190996    3738 Mark~ Busine~  151570  123045    8324  0.0521  120000   80000   50000 1029181  817906  662346   45519
##  8       1101    17488     386 Agri~ Agricu~   13104   11207     473  0.0348  100000   67000   41600   89169   71781   61335    1869
##  9       2101     5611      98 Comp~ Comput~    4716    3981     119  0.0246  114000   85000   56000   28314   22024   18381    2222
## 10       1904    33928     688 Adve~ Commun~   28517   22523     899  0.0306   90000   60000   43000  163435  127832  100330    8706
## # ... with 163 more rows, 6 more variables: nongrad_unemployment_rate <dbl>, nongrad_p25th <dbl>, nongrad_median <dbl>,
## #   nongrad_p75th <dbl>, grad_share <dbl>, grad_premium <dbl>, and abbreviated variable names 1: grad_total, 2: grad_sample_size,
## #   3: major_category, 4: grad_employed, 5: grad_employed_fulltime_yearround, 6: grad_unemployed, 7: grad_unemployment_rate,
## #   8: grad_p25th, 9: grad_median, *: grad_p75th, *: nongrad_total, *: nongrad_employed, *: nongrad_employed_fulltime_yearround,
## #   *: nongrad_unemployed
```

`everything()` is a helper verb that includes **all** column names

---
# `starts_with()`

```r
reads %>% 
    select(starts_with("test"))
```

```
## # A tibble: 48 x 3
##    test_year              test_type test_site
##    <chr>                  <chr>     <chr>    
##  1 06/01/2016 12:00:00 AM YEAR END  VIRDEN   
##  2 06/01/2016 12:00:00 AM YEAR END  VIRDEN   
##  3 06/01/2016 12:00:00 AM YEAR END  VIRDEN   
##  4 06/01/2016 12:00:00 AM YEAR END  VIRDEN   
##  5 06/01/2016 12:00:00 AM YEAR END  VIRDEN   
##  6 06/01/2016 12:00:00 AM YEAR END  VIRDEN   
##  7 06/01/2016 12:00:00 AM YEAR END  VIRDEN   
##  8 06/01/2016 12:00:00 AM YEAR END  VIRDEN   
##  9 06/01/2016 12:00:00 AM YEAR END  VIRDEN   
## 10 06/01/2016 12:00:00 AM YEAR END  VIRDEN   
## # ... with 38 more rows
```

---
# `ends_with()`

```r
reads %>% 
    select(ends_with("score"))
```

```
## # A tibble: 48 x 10
##    pre_test_score post_test_score unit_1_score unit_2_score unit_3_score unit_4_score unit_5_6_score unit_7_score unit_8_s~1 total~2
##             <dbl>           <dbl>        <dbl>        <dbl>        <dbl>        <dbl>          <dbl>        <dbl>      <dbl>   <dbl>
##  1             43              92            3            4            6            8             11           22         18     207
##  2             46             104            5            5            6            8             11           20         19     224
##  3             39              75            4            4            6            9             16           19         21     193
##  4             35             115            4            4            6           10             13           18         18     223
##  5             46              85            2            5            6            7             12           19         16     198
##  6             35              91            5            5            7            7             18           23         19     210
##  7             40              96            5            5            6            7             11           21         20     211
##  8             39              74            4            5            5            8             12           16         17     180
##  9             40              90            6            4            5            8             15           18         20     206
## 10             45              86            4            5            5            7             14           21         19     206
## # ... with 38 more rows, and abbreviated variable names 1: unit_8_score, 2: total_score
```

---
# `contains()`

```r
reads %>% 
    select(contains("test"))
```

```
## # A tibble: 48 x 7
##    test_year              test_type test_site pre_test_score pre_test_percent post_test_score post_test_percent
##    <chr>                  <chr>     <chr>              <dbl> <chr>                      <dbl> <chr>            
##  1 06/01/2016 12:00:00 AM YEAR END  VIRDEN                43 29%                           92 61%              
##  2 06/01/2016 12:00:00 AM YEAR END  VIRDEN                46 31%                          104 69%              
##  3 06/01/2016 12:00:00 AM YEAR END  VIRDEN                39 26%                           75 50%              
##  4 06/01/2016 12:00:00 AM YEAR END  VIRDEN                35 23%                          115 77%              
##  5 06/01/2016 12:00:00 AM YEAR END  VIRDEN                46 31%                           85 57%              
##  6 06/01/2016 12:00:00 AM YEAR END  VIRDEN                35 23%                           91 61%              
##  7 06/01/2016 12:00:00 AM YEAR END  VIRDEN                40 27%                           96 64%              
##  8 06/01/2016 12:00:00 AM YEAR END  VIRDEN                39 26%                           74 49%              
##  9 06/01/2016 12:00:00 AM YEAR END  VIRDEN                40 27%                           90 60%              
## 10 06/01/2016 12:00:00 AM YEAR END  VIRDEN                45 30%                           86 57%              
## # ... with 38 more rows
```

---
# `all_of()`

```r
vars <- c("pre_test_score", "pre_test_percent", "post_test_score", "post_test_percent")
```

```r
reads %>% 
    select(all_of(vars))
```

```
## # A tibble: 48 x 4
##    pre_test_score pre_test_percent post_test_score post_test_percent
##             <dbl> <chr>                      <dbl> <chr>            
##  1             43 29%                           92 61%              
##  2             46 31%                          104 69%              
##  3             39 26%                           75 50%              
##  4             35 23%                          115 77%              
##  5             46 31%                           85 57%              
##  6             35 23%                           91 61%              
##  7             40 27%                           96 64%              
##  8             39 26%                           74 49%              
##  9             40 27%                           90 60%              
## 10             45 30%                           86 57%              
## # ... with 38 more rows
```
…
---
# `any_of()`

```r
vars <- c("pre_test_score", "pre_test_percent", "post_test_score", "post_test_percent")
```

```r
reads %>% 
    select(any_of(vars))
```

```
## # A tibble: 48 x 4
##    pre_test_score pre_test_percent post_test_score post_test_percent
##             <dbl> <chr>                      <dbl> <chr>            
##  1             43 29%                           92 61%              
##  2             46 31%                          104 69%              
##  3             39 26%                           75 50%              
##  4             35 23%                          115 77%              
##  5             46 31%                           85 57%              
##  6             35 23%                           91 61%              
##  7             40 27%                           96 64%              
##  8             39 26%                           74 49%              
##  9             40 27%                           90 60%              
## 10             45 30%                           86 57%              
## # ... with 38 more rows
```
…
---
# Mix `select` methods and helpers

You can mix types and helper functions

```r
reads %>% 
    select(student_id, 1, starts_with("total"))
```

```
## # A tibble: 48 x 4
##    student_id test_year              total_score total_percent_correct
##    <chr>      <chr>                        <dbl> <chr>                
##  1 Virden 1   06/01/2016 12:00:00 AM         207 41%                  
##  2 Virden 2   06/01/2016 12:00:00 AM         224 45%                  
##  3 Virden 3   06/01/2016 12:00:00 AM         193 39%                  
##  4 Virden 4   06/01/2016 12:00:00 AM         223 45%                  
##  5 Virden 5   06/01/2016 12:00:00 AM         198 40%                  
##  6 Virden 6   06/01/2016 12:00:00 AM         210 42%                  
##  7 Virden 7   06/01/2016 12:00:00 AM         211 42%                  
##  8 Virden 8   06/01/2016 12:00:00 AM         180 36%                  
##  9 Virden 9   06/01/2016 12:00:00 AM         206 41%                  
## 10 Virden 10  06/01/2016 12:00:00 AM         206 41%                  
## # ... with 38 more rows
```

---
# Mix `select` methods and helpers

You can also use select to rearrange your columns

```r
reads %>% 
    select(student_id, 1, starts_with("total"), everything())
```

```
## # A tibble: 48 x 25
##    student~1 test_~2 total~3 total~4 test_~5 test_~6 pre_t~7 pre_t~8 post_~9 post_~* perce~* unit_~* unit_~* unit_~* unit_~* unit_~*
##    <chr>     <chr>     <dbl> <chr>   <chr>   <chr>     <dbl> <chr>     <dbl> <chr>   <chr>     <dbl> <chr>     <dbl> <chr>     <dbl>
##  1 Virden 1  06/01/~     207 41%     YEAR E~ VIRDEN       43 29%          92 61%     32%           3 12%           4 16%           6
##  2 Virden 2  06/01/~     224 45%     YEAR E~ VIRDEN       46 31%         104 69%     38%           5 20%           5 20%           6
##  3 Virden 3  06/01/~     193 39%     YEAR E~ VIRDEN       39 26%          75 50%     24%           4 16%           4 16%           6
##  4 Virden 4  06/01/~     223 45%     YEAR E~ VIRDEN       35 23%         115 77%     54%           4 16%           4 16%           6
##  5 Virden 5  06/01/~     198 40%     YEAR E~ VIRDEN       46 31%          85 57%     26%           2 8%            5 20%           6
##  6 Virden 6  06/01/~     210 42%     YEAR E~ VIRDEN       35 23%          91 61%     38%           5 20%           5 20%           7
##  7 Virden 7  06/01/~     211 42%     YEAR E~ VIRDEN       40 27%          96 64%     37%           5 20%           5 20%           6
##  8 Virden 8  06/01/~     180 36%     YEAR E~ VIRDEN       39 26%          74 49%     23%           4 16%           5 20%           5
##  9 Virden 9  06/01/~     206 41%     YEAR E~ VIRDEN       40 27%          90 60%     33%           6 24%           4 16%           5
## 10 Virden 10 06/01/~     206 41%     YEAR E~ VIRDEN       45 30%          86 57%     27%           4 16%           5 20%           5
## # ... with 38 more rows, 9 more variables: unit_3_percent <chr>, unit_4_score <dbl>, unit_4_percent <chr>, unit_5_6_score <dbl>,
## #   unit_5_6_percent <chr>, unit_7_score <dbl>, unit_7_percent <chr>, unit_8_score <dbl>, unit_8_percent <chr>, and abbreviated
## #   variable names 1: student_id, 2: test_year, 3: total_score, 4: total_percent_correct, 5: test_type, 6: test_site,
## #   7: pre_test_score, 8: pre_test_percent, 9: post_test_score, *: post_test_percent, *: percentage_change, *: unit_1_score,
## #   *: unit_1_percent, *: unit_2_score, *: unit_2_percent, *: unit_3_score
```
…
---
# `filter()` numeric

* note the use of `==` NOT `=`

.pull-left[

```r
mpg %>% 
  filter(cyl == 4)
```

```
## # A tibble: 81 x 11
##    manufacturer model      displ  year   cyl trans      drv     cty   hwy fl    class  
##    <chr>        <chr>      <dbl> <int> <int> <chr>      <chr> <int> <int> <chr> <chr>  
##  1 audi         a4           1.8  1999     4 auto(l5)   f        18    29 p     compact
##  2 audi         a4           1.8  1999     4 manual(m5) f        21    29 p     compact
##  3 audi         a4           2    2008     4 manual(m6) f        20    31 p     compact
##  4 audi         a4           2    2008     4 auto(av)   f        21    30 p     compact
##  5 audi         a4 quattro   1.8  1999     4 manual(m5) 4        18    26 p     compact
##  6 audi         a4 quattro   1.8  1999     4 auto(l5)   4        16    25 p     compact
##  7 audi         a4 quattro   2    2008     4 manual(m6) 4        20    28 p     compact
##  8 audi         a4 quattro   2    2008     4 auto(s6)   4        19    27 p     compact
##  9 chevrolet    malibu       2.4  1999     4 auto(l4)   f        19    27 r     midsize
## 10 chevrolet    malibu       2.4  2008     4 auto(l4)   f        22    30 r     midsize
## # ... with 71 more rows
```
]

.pull-right[

```r
mpg %>% 
  filter(hwy >= 22)
```

```
## # A tibble: 143 x 11
##    manufacturer model      displ  year   cyl trans      drv     cty   hwy fl    class  
##    <chr>        <chr>      <dbl> <int> <int> <chr>      <chr> <int> <int> <chr> <chr>  
##  1 audi         a4           1.8  1999     4 auto(l5)   f        18    29 p     compact
##  2 audi         a4           1.8  1999     4 manual(m5) f        21    29 p     compact
##  3 audi         a4           2    2008     4 manual(m6) f        20    31 p     compact
##  4 audi         a4           2    2008     4 auto(av)   f        21    30 p     compact
##  5 audi         a4           2.8  1999     6 auto(l5)   f        16    26 p     compact
##  6 audi         a4           2.8  1999     6 manual(m5) f        18    26 p     compact
##  7 audi         a4           3.1  2008     6 auto(av)   f        18    27 p     compact
##  8 audi         a4 quattro   1.8  1999     4 manual(m5) 4        18    26 p     compact
##  9 audi         a4 quattro   1.8  1999     4 auto(l5)   4        16    25 p     compact
## 10 audi         a4 quattro   2    2008     4 manual(m6) 4        20    28 p     compact
## # ... with 133 more rows
```
…
