Week 8: Tidy Data
…
.pull-left[

```r
relig_income %>% 
  pivot_longer(
    cols = -religion,
    names_to = "income",
    values_to = "frequency"
  )
```
]
.pull-right[

```
## # A tibble: 180 x 3
##    religion income             frequency
##    <chr>    <chr>                  <dbl>
##  1 Agnostic <$10k                     27
##  2 Agnostic $10-20k                   34
##  3 Agnostic $20-30k                   60
##  4 Agnostic $30-40k                   81
##  5 Agnostic $40-50k                   76
##  6 Agnostic $50-75k                  137
##  7 Agnostic $75-100k                 122
##  8 Agnostic $100-150k                109
##  9 Agnostic >150k                     84
## 10 Agnostic Don't know/refused        96
## # ... with 170 more rows
```
…
When used with `{dplyr}`, tidy data can result in large gains in efficiency

For example, suppose we want to calculate the percent of respondents in each income category *by* religion

**Now** let's group by `religion` to create a `pct` variable that indicates the percent of respondents in each income category *within* each religion category

```r
relig_long %>% 
  group_by(religion) %>% 
  mutate(pct = frequency/sum(frequency) * 100)
```

```
## # A tibble: 180 x 4
## # Groups:   religion [18]
##    religion income             frequency   pct
##    <chr>    <fct>                  <dbl> <dbl>
##  1 Agnostic <$10k                     27  3.27
##  2 Agnostic $10-20k                   34  4.12
##  3 Agnostic $20-30k                   60  7.26
##  4 Agnostic $30-40k                   81  9.81
##  5 Agnostic $40-50k                   76  9.20
##  6 Agnostic $50-75k                  137 16.6 
##  7 Agnostic $75-100k                 122 14.8 
##  8 Agnostic $100-150k                109 13.2 
##  9 Agnostic >150k                     84 10.2 
## 10 Agnostic Don't know/refused        96 11.6 
## # ... with 170 more rows
```
…
<img src="w8_tidydata_files/figure-html/unnamed-chunk-22-1.png" width="100%" />

---

# Messy data

Many variables in column names

`tidyr::who` (modified slightly)

```
## # A tibble: 7,240 x 60
*##    country     iso2  iso3   year new_s~1 new_s~2 new_s~3 new_s~4 new_s~5 new_s~6
##    <chr>       <chr> <chr> <int>   <int>   <int>   <int>   <int>   <int>   <int>
##  1 Afghanistan AF    AFG    1980      NA      NA      NA      NA      NA      NA
##  2 Afghanistan AF    AFG    1981      NA      NA      NA      NA      NA      NA
##  3 Afghanistan AF    AFG    1982      NA      NA      NA      NA      NA      NA
##  4 Afghanistan AF    AFG    1983      NA      NA      NA      NA      NA      NA
##  5 Afghanistan AF    AFG    1984      NA      NA      NA      NA      NA      NA
##  6 Afghanistan AF    AFG    1985      NA      NA      NA      NA      NA      NA
##  7 Afghanistan AF    AFG    1986      NA      NA      NA      NA      NA      NA
##  8 Afghanistan AF    AFG    1987      NA      NA      NA      NA      NA      NA
##  9 Afghanistan AF    AFG    1988      NA      NA      NA      NA      NA      NA
## 10 Afghanistan AF    AFG    1989      NA      NA      NA      NA      NA      NA
## # ... with 7,230 more rows, 50 more variables: new_sp_m_65 <int>,
## #   new_sp_f_014 <int>, new_sp_f_1524 <int>, new_sp_f_2534 <int>,
## #   new_sp_f_3544 <int>, new_sp_f_4554 <int>, new_sp_f_5564 <int>,
## #   new_sp_f_65 <int>, new_sn_m_014 <int>, new_sn_m_1524 <int>,
## #   new_sn_m_2534 <int>, new_sn_m_3544 <int>, new_sn_m_4554 <int>,
## #   new_sn_m_5564 <int>, new_sn_m_65 <int>, new_sn_f_014 <int>,
## #   new_sn_f_1524 <int>, new_sn_f_2534 <int>, new_sn_f_3544 <int>, ...
```
…
---
# Let's apply it

```r
who_r %>%
 pivot_longer(
  cols = new_sp_m_014:new_rel_f_65,
  names_to = c("new", "diagnosis", "sex", "age"), 
  names_sep = "_",
  values_to = "count"
)
```

```
## # A tibble: 405,440 x 9
*##    country     iso2  iso3   year new   diagnosis sex   age   count
##    <chr>       <chr> <chr> <int> <chr> <chr>     <chr> <chr> <int>
##  1 Afghanistan AF    AFG    1980 new   sp        m     014      NA
##  2 Afghanistan AF    AFG    1980 new   sp        m     1524     NA
##  3 Afghanistan AF    AFG    1980 new   sp        m     2534     NA
##  4 Afghanistan AF    AFG    1980 new   sp        m     3544     NA
##  5 Afghanistan AF    AFG    1980 new   sp        m     4554     NA
##  6 Afghanistan AF    AFG    1980 new   sp        m     5564     NA
##  7 Afghanistan AF    AFG    1980 new   sp        m     65       NA
##  8 Afghanistan AF    AFG    1980 new   sp        f     014      NA
##  9 Afghanistan AF    AFG    1980 new   sp        f     1524     NA
## 10 Afghanistan AF    AFG    1980 new   sp        f     2534     NA
## # ... with 405,430 more rows
```
…
Start a new `R` script or Rmd

```r
library(tidyverse)
library(here)
exam <- read_csv(here("data", "exam1.csv"))
```

---
# exam1 data

```
## # A tibble: 35 x 20
##    stu_n~1 gender item_1 item_2 item_3 item_4 item_5 item_6 item_7 item_8 item_9
##    <chr>   <chr>   <dbl>  <dbl>  <dbl>  <dbl>  <dbl>  <dbl>  <dbl>  <dbl>  <dbl>
##  1 Adam    M           1      1      1      1      1      1      1      0      0
##  2 Anne    F           1      1      1      1      1      1      1      1      1
##  3 Audrey  F           1      1      1      1      1      1      1      1      1
##  4 Barbara F           1      1      1      1      0      0      1      0      0
##  5 Bert    M           1      1      1      1      1      0      1      0      1
##  6 Betty   F           1      1      1      1      1      1      1      1      1
##  7 Blaise  M           1      1      1      1      1      1      1      1      1
##  8 Brenda  F           1      1      1      1      1      1      1      1      1
##  9 Britton F           1      1      1      0      1      1      1      1      1
## 10 Carol   F           1      1      1      1      0      0      1      0      1
## # ... with 25 more rows, 9 more variables: item_10 <dbl>, item_11 <dbl>,
## #   item_12 <dbl>, item_13 <dbl>, item_14 <dbl>, item_15 <dbl>, item_16 <dbl>,
## #   item_17 <dbl>, item_18 <dbl>, and abbreviated variable name 1: stu_name
```
…
03:00

---
# exam1 data

What do we want?

--

Let’s change all *item* variables into two variables: *item* and *score*

--

```
## # A tibble: 630 x 4
##    stu_name gender item    score
##    <chr>    <chr>  <chr>   <dbl>
##  1 Adam     M      item_1      1
##  2 Adam     M      item_2      1
##  3 Adam     M      item_3      1
##  4 Adam     M      item_4      1
##  5 Adam     M      item_5      1
##  6 Adam     M      item_6      1
##  7 Adam     M      item_7      1
##  8 Adam     M      item_8      0
##  9 Adam     M      item_9      0
## 10 Adam     M      item_10     0
## # ... with 620 more rows
```
…
---
# exam1 tidy

```r
exam %>% 
  pivot_longer(
    cols = starts_with("item"),
    names_to = "item",
    values_to = "score"
  )
```

```
## # A tibble: 630 x 4
##    stu_name gender item    score
##    <chr>    <chr>  <chr>   <dbl>
##  1 Adam     M      item_1      1
##  2 Adam     M      item_2      1
##  3 Adam     M      item_3      1
##  4 Adam     M      item_4      1
##  5 Adam     M      item_5      1
##  6 Adam     M      item_6      1
##  7 Adam     M      item_7      1
##  8 Adam     M      item_8      0
##  9 Adam     M      item_9      0
## 10 Adam     M      item_10     0
## # ... with 620 more rows
```
…
Let's go one step further

```r
exam %>% 
  pivot_longer(
    cols = starts_with("item"),
    names_to = "item",
*   names_prefix = "item_",
    values_to = "score"
  )
```

```
## # A tibble: 630 x 4
##    stu_name gender item  score
*##    <chr>    <chr>  <chr> <dbl>
##  1 Adam     M      1         1
##  2 Adam     M      2         1
##  3 Adam     M      3         1
##  4 Adam     M      4         1
##  5 Adam     M      5         1
##  6 Adam     M      6         1
##  7 Adam     M      7         1
##  8 Adam     M      8         0
##  9 Adam     M      9         0
## 10 Adam     M      10        0
## # ... with 620 more rows
```
…
And another step

```r
exam %>% 
  pivot_longer(
    cols = starts_with("item"),
    names_to = "item",
    names_prefix = "item_",
*   names_transform = list(item = as.integer),
    values_to = "score"
  )
```

```
## # A tibble: 630 x 4
##    stu_name gender  item score
*##    <chr>    <chr>  <int> <dbl>
##  1 Adam     M          1     1
##  2 Adam     M          2     1
##  3 Adam     M          3     1
##  4 Adam     M          4     1
##  5 Adam     M          5     1
##  6 Adam     M          6     1
##  7 Adam     M          7     1
##  8 Adam     M          8     0
##  9 Adam     M          9     0
## 10 Adam     M         10     0
## # ... with 620 more rows
```
…
---
# One more look at `names_prefix`

```r
who_r %>%
 pivot_longer(
  cols = new_sp_m_014:new_rel_f_65,
* names_to = c("new", "diagnosis", "sex", "age"),
  names_sep = "_",
  values_to = "count"
)
```

```
## # A tibble: 405,440 x 9
*##    country     iso2  iso3   year new   diagnosis sex   age   count
##    <chr>       <chr> <chr> <int> <chr> <chr>     <chr> <chr> <int>
##  1 Afghanistan AF    AFG    1980 new   sp        m     014      NA
##  2 Afghanistan AF    AFG    1980 new   sp        m     1524     NA
##  3 Afghanistan AF    AFG    1980 new   sp        m     2534     NA
##  4 Afghanistan AF    AFG    1980 new   sp        m     3544     NA
##  5 Afghanistan AF    AFG    1980 new   sp        m     4554     NA
##  6 Afghanistan AF    AFG    1980 new   sp        m     5564     NA
##  7 Afghanistan AF    AFG    1980 new   sp        m     65       NA
##  8 Afghanistan AF    AFG    1980 new   sp        f     014      NA
##  9 Afghanistan AF    AFG    1980 new   sp        f     1524     NA
## 10 Afghanistan AF    AFG    1980 new   sp        f     2534     NA
## # ... with 405,430 more rows
```
…
```r
who_r %>%
 pivot_longer(
  cols = new_sp_m_014:new_rel_f_65,
  names_to = c("diagnosis", "sex", "age"), 
* names_prefix = "new_",
  names_sep = "_",
  values_to = "count"
)
```

```
## # A tibble: 405,440 x 8
*##    country     iso2  iso3   year diagnosis sex   age   count
##    <chr>       <chr> <chr> <int> <chr>     <chr> <chr> <int>
##  1 Afghanistan AF    AFG    1980 sp        m     014      NA
##  2 Afghanistan AF    AFG    1980 sp        m     1524     NA
##  3 Afghanistan AF    AFG    1980 sp        m     2534     NA
##  4 Afghanistan AF    AFG    1980 sp        m     3544     NA
##  5 Afghanistan AF    AFG    1980 sp        m     4554     NA
##  6 Afghanistan AF    AFG    1980 sp        m     5564     NA
##  7 Afghanistan AF    AFG    1980 sp        m     65       NA
##  8 Afghanistan AF    AFG    1980 sp        f     014      NA
##  9 Afghanistan AF    AFG    1980 sp        f     1524     NA
## 10 Afghanistan AF    AFG    1980 sp        f     2534     NA
## # ... with 405,430 more rows
```
…
**Question**: What if we wanted to know the proportion correct for each item by gender?

---
# Why are tidy data useful?

**Question**: What if we wanted to know the proportion correct for each item by gender?

```r
exam_tidy %>% 
  group_by(item, gender) %>% 
  summarize(prop = mean(score))
```

```
## # A tibble: 36 x 3
## # Groups:   item [18]
##     item gender  prop
##    <int> <chr>  <dbl>
##  1     1 F      1    
##  2     1 M      1    
##  3     2 F      1    
##  4     2 M      1    
##  5     3 F      1    
##  6     3 M      1    
##  7     4 F      0.889
##  8     4 M      0.941
##  9     5 F      0.833
## 10     5 M      0.941
## # ... with 26 more rows
```
…
.pull-right[
The names of the (tidy) column (or columns) from which to get the the cell values
]

---
# An example

**fish_encounters**: when fish swimming down a river are detected by automatic monitoring stations

```r
tidyr::fish_encounters
```

```
## # A tibble: 114 x 3
##    fish  station  seen
##    <fct> <fct>   <int>
##  1 4842  Release     1
##  2 4842  I80_1       1
##  3 4842  Lisbon      1
##  4 4842  Rstr        1
##  5 4842  Base_TD     1
##  6 4842  BCE         1
##  7 4842  BCW         1
##  8 4842  BCE2        1
##  9 4842  BCW2        1
## 10 4842  MAE         1
## # ... with 104 more rows
```
…
---
# Let's do this together

Use `pivot_wider()` to change *sim_tidy* back to *sim*

.pull-left[

```r
sim_tidy
```

```
## # A tibble: 40 x 4
##      sid wave  content score
##    <dbl> <chr> <chr>   <dbl>
##  1     1 1     math       95
##  2     1 2     math       98
##  3     1 3     math      102
##  4     1 4     math      105
##  5     1 1     rdg        96
##  6     1 2     rdg        98
##  7     1 3     rdg       101
##  8     1 4     rdg       103
##  9     2 1     math      101
## 10     2 2     math      103
## # ... with 30 more rows
```
…
```r
sim2 %>% 
  pivot_longer(
    cols = -1,
    names_to = c("variable", "grade"),
    values_to = "values",
    names_sep = "_",
#to combine numeric & character
*   values_transform = list(values = as.character))
```

```
## # A tibble: 1,800 x 4
##      SID variable grade values
##    <dbl> <chr>    <chr> <chr> 
##  1     1 male     g6    1     
##  2     1 male     g7    1     
##  3     1 male     g8    1     
##  4     1 ell      g6    0     
##  5     1 ell      g7    0     
##  6     1 ell      g8    0     
##  7     1 sped     g6    0     
##  8     1 sped     g7    0     
##  9     1 sped     g8    0     
## 10     1 pullouts g6    0     
## # ... with 1,790 more rows
```
…
```r
sim2 %>% 
  pivot_longer(
    cols = -1,
    names_to = c("variable", "grade"),
    values_to = "values",
    names_sep = "_",
    values_transform = list(values = as.character)) %>% 
* mutate(grade = parse_number(grade))
```

```
## # A tibble: 1,800 x 4
##      SID variable grade values
*##    <dbl> <chr>    <dbl> <chr> 
##  1     1 male         6 1     
##  2     1 male         7 1     
##  3     1 male         8 1     
##  4     1 ell          6 0     
##  5     1 ell          7 0     
##  6     1 ell          8 0     
##  7     1 sped         6 0     
##  8     1 sped         7 0     
##  9     1 sped         8 0     
## 10     1 pullouts     6 0     
## # ... with 1,790 more rows
```
…
```
## # A tibble: 300 x 8
##      SID grade male  ell   sped  pullouts disability score           
##    <dbl> <dbl> <chr> <chr> <chr> <chr>    <chr>      <chr>           
##  1     1     6 1     0     0     0        none       204.711224219096
##  2     1     7 1     0     0     0        none       207.641655929138
##  3     1     8 1     0     0     0        none       211.468672710232
##  4     2     6 0     0     0     1        none       212.343498534668
##  5     2     7 0     0     0     1        none       217.565910013073
##  6     2     8 0     0     0     1        none       227.036910872597
##  7     3     6 1     0     0     0        none       215.436668173264
##  8     3     7 1     0     0     0        none       217.029498660224
##  9     3     8 1     0     0     0        none       222.232373013961
## 10     4     6 1     0     0     0        none       219.182457533654
## # ... with 290 more rows
```

---

```
## # A tibble: 300 x 8
##      SID grade male  ell   sped  pullouts disability score           
##    <dbl> <dbl> <chr> <chr> <chr> <chr>    <chr>      <chr>           
##  1     1     6 1     0     0     0        none       204.711224219096
##  2     1     7 1     0     0     0        none       207.641655929138
##  3     1     8 1     0     0     0        none       211.468672710232
##  4     2     6 0     0     0     1        none       212.343498534668
##  5     2     7 0     0     0     1        none       217.565910013073
##  6     2     8 0     0     0     1        none       227.036910872597
##  7     3     6 1     0     0     0        none       215.436668173264
##  8     3     7 1     0     0     0        none       217.029498660224
##  9     3     8 1     0     0     0        none       222.232373013961
## 10     4     6 1     0     0     0        none       219.182457533654
## # ... with 290 more rows
```
…
